{
    "name": "1111",
    "author": "Anthony Wang",
    "points": 100,
    "statement": [
        "Here’s a fun and useful regex! How many strings does the following regex match?",
        "20[0-9][0-9]-(1[0-2]|0[1-9])-(3[01]|0[1-9]|[12][0-9])"
    ],
    "time-limit": 1,
    "memory-limit": 25600
}
