{
    "name": "0010",
    "author": "Anthony Wang",
    "points": 100,
    "statement": [
        "Billiam sucks at regex crossword and needs your help for the first level: https://regexcrossword.com/challenges/beginner/puzzles/1"
    ],
    "time-limit": 1,
    "memory-limit": 256000
}
