{
    "name": "1000",
    "author": "Anthony Wang",
    "points": 100,
    "statement": [
        "(Last regex I promise) Create a 2-character regex that matches the names of everyone in the room."
    ],
    "time-limit": 1,
    "memory-limit": 25600
}
