{
    "name": "0011",
    "author": "Anthony Wang",
    "points": 100,
    "statement": [
        "Caoash is bored of ACSL and came up with this problem:",
        "Find all boolean operators for ? that make the following equation true:",
        "1 ? 0 = 1",
        "Write your answer in the following format: NOT, OR, AND, XOR, etc"
    ],
    "time-limit": 1,
    "memory-limit": 25600
}
