{
    "name": "bonus1",
    "author": "Anthony Wang",
    "points": 100,
    "statement": [
        "How many levels of regex crossword did you solve?"
    ],
    "time-limit": 1,
    "memory-limit": 25600
}
