{
    "name": "1010",
    "author": "Anthony Wang",
    "points": 100,
    "statement": [
        "PUSH(A), PUSH(A), PUSH(A), PUSH(A), PUSH(A), PUSH(A), PUSH(A), PUSH(A), PUSH(A), PUSH(A), PUSH(A), PUSH(A), PUSH(A), PUSH(A), PUSH(A), PUSH(A), X = POP(), X = POP(), X = POP(), X = POP(), X = POP(), X = POP(), X = POP(), X = POP(), X = POP(), X = POP(), X = POP(), X = POP(), X = POP(), X = POP(), X = POP(), X = POP()",
        "PRINT(X)"
    ],
    "time-limit": 1,
    "memory-limit": 25600
}
