{
    "name": "1100",
    "author": "Anthony Wang",
    "points": 100,
    "statement": [
        "Abheekd wrote the following boolean expression and now you get to simplify it!",
        "XXXXXXXXXXXXXXXXXXXXXXXXXXXXXXXXXXXXXXXXXXXXXXXXXXXXXXXXXXXXXXXXXXXXX"
    ],
    "time-limit": 1,
    "memory-limit": 25600
}
